<svg xmlns="http://www.w3.org/2000/svg" id="Layer_1" viewBox="0 0 131 61">
  <style>
    .st0{fill:#00447F;} .st1{fill:#7ABE3B;}
  </style>
  <path d="M13.1 39.7l3.7-17.9h3.9l-1.5 7h.1c1-1.1 2.4-1.9 4.1-1.9 2 0 3.2 1.2 3.2 3.2 0 .6-.1 1.5-.3 2.3l-1.5 7.2h-3.9l1.5-7c.1-.5.2-1.1.2-1.6 0-.8-.3-1.3-1.2-1.3-1.2 0-2.5 1.4-3 3.7l-1.3 6.1h-4zM33.9 44.7l2.7-12.8c.3-1.4.6-3.4.8-4.7h3.4l-.2 1.9h.1c1-1.3 2.5-2.1 4.1-2.1 2.8 0 4 2.1 4 4.5 0 4.3-3 8.5-7.5 8.5-1 0-1.8-.2-2.3-.5h-.1l-1.1 5.2h-3.9zm5.5-7.9c.4.3.9.5 1.6.5 2.2 0 3.6-3.2 3.6-5.5 0-.9-.4-1.9-1.5-1.9-1.3 0-2.6 1.4-3 3.6l-.7 3.3zM69.2 24l-.7 3.3h2.8l-.6 2.6H68l-1 4.7c-.1.5-.2 1-.2 1.4 0 .7.3 1 1.1 1 .3 0 .7 0 1-.1l-.4 2.7c-.5.3-1.5.4-2.3.4-2.3 0-3.4-1.1-3.4-2.7 0-.6.1-1.3.3-2.2l1.1-5.2h-1.7l.6-2.6h1.7l.5-2.3 3.9-1zM79 39.7c0-.7.1-1.5.2-2.3h-.1c-1.2 1.9-2.8 2.6-4.3 2.6-2.3 0-3.8-1.7-3.8-4.1 0-4.7 2.2-8.6 9.2-8.6 1.5 0 3.2.3 4.2.6L83 34.4c-.3 1.6-.6 4-.6 5.5H79zm1.2-9.7c-.3-.1-.6-.1-1-.1-2.9 0-4.2 2.8-4.2 5.3 0 1.2.4 2 1.5 2s2.5-1.3 3-4.1l.7-3.1zM92.6 24l-.7 3.3h2.8l-.6 2.6h-2.8l-1 4.7c-.1.5-.2 1-.2 1.4 0 .7.3 1 1.1 1 .3 0 .7 0 1-.1l-.4 2.7c-.6.2-1.5.3-2.3.3-2.3 0-3.4-1.1-3.4-2.7 0-.6.1-1.3.3-2.2l1.1-5.2h-1.7l.6-2.6h1.7l.5-2.3 4-.9zM117.2 39.7l1.8-8.4c.3-1.5.5-2.9.7-4h3.4l-.2 1.9h.1c1.2-1.5 2.7-2.2 4.4-2.2 2.2 0 3.3 1.2 3.3 3.2 0 .6-.1 1.5-.3 2.2l-1.5 7.3H125l1.5-7.1c.1-.4.1-.9.1-1.4 0-.8-.3-1.3-1.2-1.3-1.2 0-2.6 1.4-3.1 4l-1.2 5.8h-3.9zM32.3 25.7c1.2 0 2.3-.7 2.3-2 0-1-.7-1.7-1.9-1.7s-2.2.9-2.2 2c0 1 .7 1.7 1.8 1.7zM33.7 27.2h-3.8l-1.6 7.7c-.2.9-.3 1.5-.3 2.2 0 1.6 1.1 2.7 3.4 2.7.8 0 1.7-.1 2.3-.3l.4-2.7c-.3.1-.7.1-1 .1-.8 0-1.1-.4-1.1-1 0-.4.1-.9.2-1.4l1.5-7.3zM99.3 25.7c1.2 0 2.3-.7 2.3-2 0-1-.7-1.7-1.9-1.7s-2.2.9-2.2 2c0 1 .7 1.7 1.8 1.7zM100.6 27.2h-3.8l-1.6 7.7c-.2.9-.3 1.5-.3 2.2 0 1.6 1.1 2.7 3.4 2.7.8 0 1.7-.1 2.3-.3l.4-2.7c-.3.1-.7.1-1 .1-.8 0-1.1-.4-1.1-1 0-.4.1-.9.2-1.4l1.5-7.3zM8.5 30C6.9 29.1 6 28.3 6 27.3c0-1 1-1.9 2.8-1.9 1.3 0 2.6.5 3.5 1l.7-3v-.1c-.7-.4-2-1-4-1-4.4 0-7 2-7 5.5 0 2 1.6 3.5 3.4 4.6 1.6.9 2.3 1.4 2.3 2.4 0 1.3-1.3 2.1-2.9 2.1-1.5 0-3.1-.8-4-1.4L0 38.7c.8.5 2.4 1.2 4.5 1.2 4.2 0 7.2-1.6 7.2-5.7.1-1.8-1.2-3.1-3.2-4.2zM57.3 30c-1.6-.9-2.5-1.7-2.5-2.7 0-1 1-1.9 2.8-1.9 1.3 0 2.6.5 3.5 1l.7-3v-.1c-.7-.4-2-1-4-1-4.4 0-7 2-7 5.5 0 2 1.6 3.5 3.4 4.6 1.6.9 2.3 1.4 2.3 2.4 0 1.3-1.3 2.1-2.9 2.1-1.5 0-3.1-.8-4-1.4l-.8 3.2c.8.5 2.4 1.2 4.5 1.2 4.2 0 7.2-1.6 7.2-5.7.1-1.8-1.1-3.1-3.2-4.2z" class="st0"/>
  <path id="Gear" d="M110.6 41.2h-2.4l-.3-2.1c-.5-.1-1-.4-1.5-.6l-1.7 1.3-1.7-1.7 1.3-1.7c-.3-.5-.5-1-.6-1.5l-2.1-.3V32l2.1-.3c.1-.5.4-1.1.6-1.5l-1.3-1.7 1.7-1.7 1.7 1.3c.5-.3 1-.5 1.5-.6l.3-2.1h2.4l.3 2.1c.5.1 1 .4 1.5.6l1.7-1.3 1.7 1.7-1.3 1.7c.3.5.5 1 .6 1.5l2.1.3v2.4l-2.1.3c-.1.5-.4 1.1-.6 1.5l1.3 1.7-1.7 1.7-1.7-1.3c-.5.3-1 .5-1.5.6l-.3 2.3zm-1.2-10.7c-1.5 0-2.7 1.2-2.7 2.7 0 1.5 1.2 2.7 2.7 2.7s2.7-1.2 2.7-2.7c-.1-1.5-1.3-2.7-2.7-2.7z" class="st1"/>
</svg>
