<?xml version="1.0" encoding="utf-8"?>
<!-- Generator: Adobe Illustrator 25.0.1, SVG Export Plug-In . SVG Version: 6.00 Build 0)  -->
<svg version="1.1" id="Layer_1" xmlns="http://www.w3.org/2000/svg" xmlns:xlink="http://www.w3.org/1999/xlink" x="0px" y="0px"
	 viewBox="0 0 385.5 385.5" style="enable-background:new 0 0 385.5 385.5;" xml:space="preserve">
<style type="text/css">
	.st0{fill:#232323;}
	.st1{fill:#FFFFFF;}
	.st2{fill:#1E242B;}
	.st3{enable-background:new    ;}
	.st4{fill-rule:evenodd;clip-rule:evenodd;fill:#1E242B;}
</style>
<g id="Layer_3_copy_xA0_Image_1_">
	<g>
		<path class="st0" d="M263.2,173c-2.6,0-5.2,0-8.1,0c-0.1-1.5-0.1-2.8-0.1-4.1c0-14.1,0-28.3,0-42.4c0-2.3-0.2-4.7-0.8-7
			c-1.2-4.4-4.1-7.2-8.7-8.2c-1.4-0.3-2.9-0.6-4.4-0.7c-3.6-0.1-7.1,0-11,0c-1.1,5.2-2.2,10.2-3.2,15.2c-1,5.1-3.1,5.6-6.4,5.6
			c-18.1-0.1-36.1-0.1-54.2,0c-4,0-5.4-1.2-6.3-5.2c-1.1-5-2.1-10.1-3.2-15.5c-5.6-0.1-11.1-0.7-16.5,0.9c-4.3,1.3-7.1,4.4-7.8,9
			c-0.3,2.6-0.6,5.1-0.6,7.7c-0.1,13.4,0,26.8,0,40.2c0,1.3,0,2.7,0,4.3c-2.8,0-5.3,0-8.1,0c-0.1-0.8-0.3-1.6-0.3-2.4
			c0-16.1,0-32.2,0-48.3c0-10.1,8.8-19.8,19.8-19.8c33.1,0,66.3,0.1,99.4-0.1c8.1,0,16.6,5.4,19.4,13.8c0.2,0.7,0.5,2,0.7,3.1
			C263.3,120.9,263.2,154.6,263.2,173z M168.5,122.2c16.9,0,33.3,0,50.1,0c0.8-3.8,1.6-7.4,2.4-11.1c-0.4-0.2-0.6-0.5-0.8-0.5
			c-17.1,0-34.1-0.1-51.2-0.1c-0.7,0-1.5,0.1-2.2,0.2c-0.1,0-0.2,0.1-0.3,0.2c-0.1,0.1-0.1,0.2-0.2,0.5
			C166.9,114.9,167.6,118.5,168.5,122.2z"/>
		<path class="st0" d="M263.2,341.1c-1.4,2.7-2.4,5.6-4.3,8c-3.4,4.3-7.8,7.2-13.1,7.5c-10.1,0.5-20.2,0.1-30.5,0.1
			c-1-2.6-0.2-5.2-0.5-8c1.2-0.1,2.1-0.3,3-0.3c6.4,0,12.9,0,19.3,0c2.7,0,5.4-0.3,8.1-0.7c4.6-0.7,8.4-4.5,9-9.1
			c0.4-2.5,0.7-5.1,0.7-7.7c0-42.1,0-84.2,0-126.4c0-1.5,0-2.9,0-4.5l8.3,0C263.2,247.2,263.2,294,263.2,341.1z"/>
		<path class="st0" d="M124.2,205.1c2.5,0,4.9,0,7.8,0c0,1.6,0,3.1,0,4.5c0,40.9,0,81.8,0,122.6c0,2.4,0.2,5,0.8,7.3
			c1.1,4.1,3.9,6.9,8,8c2.2,0.6,4.6,0.8,6.9,0.8c11.7,0.1,23.5,0,35.2,0c1.4,0,2.7,0,4.2,0c1,2.7,0.4,5.2,0.5,8
			c-0.9,0.1-1.7,0.4-2.5,0.4c-14.1,0-28.2,0-42.3,0c-7.1,0-14.6-5.1-17.7-12.5c-1.1-2.7-1.5-5.4-1.5-8.3c0-42.5,0-85,0-127.5
			C123.7,207.3,123.2,206,124.2,205.1z"/>
		<path class="st1" d="M168.5,122.2c-0.8-3.8-1.6-7.3-2.3-10.8c0.1-0.3,0.2-0.4,0.2-0.5c0.1-0.1,0.2-0.2,0.3-0.2
			c0.7-0.1,1.5-0.2,2.2-0.2c17.1,0,34.1,0,51.2,0.1c0.2,0,0.4,0.2,0.8,0.5c-0.8,3.6-1.6,7.3-2.4,11.1
			C201.8,122.2,185.4,122.2,168.5,122.2z"/>
	</g>
</g>
<g id="R">
	<g>
		<path class="st2" d="M183.5,236.2v25h-13.8V196h19c8.8,0,15.4,1.6,19.6,4.8c4.2,3.2,6.4,8.1,6.4,14.7c0,3.8-1.1,7.2-3.2,10.2
			c-2.1,3-5.1,5.3-9,7c9.8,14.6,16.2,24.1,19.2,28.4h-15.3l-15.5-25L183.5,236.2L183.5,236.2z M183.5,224.9h4.5
			c4.4,0,7.6-0.7,9.7-2.2c2.1-1.5,3.1-3.7,3.1-6.9c0-3.1-1.1-5.3-3.2-6.6s-5.4-2-9.9-2h-4.2L183.5,224.9L183.5,224.9z"/>
	</g>
</g>
<g id="Rounded_Rectangle_1_1_" class="st3">
	<g id="Rounded_Rectangle_1">
		<g>
			<path class="st4" d="M258.8,175.3c-0.6,0-1.2-0.2-1.6-0.7l-14.8-14.8c-0.7-0.7-0.9-1.9-0.3-2.7h33.6c0.5,0.9,0.4,2-0.3,2.7
				l-14.8,14.8C259.9,175.1,259.4,175.3,258.8,175.3z"/>
		</g>
		<g>
			<path class="st2" d="M274.3,158.6c0,0.1-0.1,0.1-0.1,0.2l-14.8,14.8c-0.2,0.2-0.4,0.2-0.5,0.2s-0.3,0-0.5-0.2l-14.8-14.8
				c-0.1-0.1-0.1-0.1-0.1-0.2H274.3 M276.3,155.6h-35c-1.5,1.5-1.5,3.8,0,5.3l14.8,14.8c0.7,0.7,1.7,1.1,2.7,1.1s1.9-0.4,2.7-1.1
				l14.8-14.8C277.7,159.4,277.7,157.1,276.3,155.6L276.3,155.6z"/>
		</g>
	</g>
</g>
<g id="Rounded_Rectangle_1_copy_1_" class="st3">
	<g id="Rounded_Rectangle_1_copy">
		<g>
			<path class="st4" d="M222.4,370.5c-0.6,0-1.1-0.2-1.5-0.7l-14.7-15c-0.9-0.9-0.9-2.4,0-3.2l14.7-15c0.4-0.4,1-0.7,1.5-0.7
				c0.4,0,0.8,0.1,1.1,0.3v33.9C223.2,370.4,222.8,370.5,222.4,370.5z"/>
		</g>
		<g>
			<path class="st2" d="M222,337.6v31.3l-0.1-0.1l-14.7-15c-0.3-0.3-0.3-0.8,0-1.1L222,337.6C221.9,337.7,222,337.6,222,337.6
				 M222.4,334.5c-0.9,0-1.9,0.4-2.6,1.1l-14.7,15c-1.4,1.5-1.4,3.9,0,5.3l14.7,15c0.7,0.7,1.7,1.1,2.6,1.1c0.9,0,1.9-0.4,2.6-1.1
				v-35.3C224.3,334.9,223.3,334.5,222.4,334.5L222.4,334.5z"/>
		</g>
	</g>
</g>
<g id="Rounded_Rectangle_1_copy_2_1_" class="st3">
	<g id="Rounded_Rectangle_1_copy_2">
		<g>
			<path class="st4" d="M109.8,212.3c-0.2-0.3-0.3-0.7-0.3-1.1c0-0.6,0.2-1.1,0.7-1.6l15-14.7c0.4-0.4,1-0.7,1.6-0.7
				s1.2,0.2,1.6,0.7l15,14.7c0.4,0.4,0.7,1,0.7,1.6c0,0.4-0.1,0.8-0.3,1.1H109.8z"/>
		</g>
		<g>
			<path class="st2" d="M126.8,195.7c0.1,0,0.4,0,0.6,0.2l15,14.7l0.1,0.1h-31.2l0.1-0.1l15-14.7
				C126.4,195.8,126.6,195.7,126.8,195.7 M126.8,192.7c-1,0-1.9,0.4-2.7,1.1l-15,14.7c-1.5,1.4-1.5,3.8,0,5.2h35.3
				c1.5-1.4,1.5-3.8,0-5.2l-15-14.7C128.7,193.1,127.7,192.7,126.8,192.7L126.8,192.7z"/>
		</g>
	</g>
</g>
<g id="FIGHT_E-WASTE">
	<g>
		<path class="st2" d="M61.5,125.4l-4,5.2l-24.8-19.3l11-14.2l4.3,3.3l-7,9l6.4,5l6.5-8.4l4.3,3.3l-6.5,8.4L61.5,125.4z"/>
		<path class="st2" d="M73,111.9l-22.4-22l4.7-4.7l22.4,22L73,111.9z"/>
		<path class="st2" d="M82,80.1l9.9-7.6l9.9,12.9c-1.2,1.8-2.4,3.3-3.7,4.6c-1.3,1.3-2.6,2.5-4.1,3.6c-3.8,2.9-7.5,4-11.2,3.3
			s-7.1-3.1-10.3-7.2c-3.1-4-4.3-8-3.8-12.1s2.9-7.6,7-10.7c2.6-2,5.4-3.3,8.6-4.1l1.5,5.6c-2.5,0.5-4.8,1.5-6.7,3
			c-2.3,1.8-3.5,3.9-3.7,6.5s0.7,5.2,2.7,7.8c2.1,2.7,4.2,4.3,6.4,4.9c2.2,0.6,4.4,0.1,6.5-1.6c1.1-0.8,2.1-1.8,3.1-2.9l-4-5.2
			l-4.7,3.6L82,80.1z"/>
		<path class="st2" d="M131.8,71.3l-6,2.9l-6-12.2l-11.2,5.5l6,12.2l-6,2.9l-13.8-28l6-2.9l5.4,11l11.2-5.5l-5.4-11l6-2.9
			L131.8,71.3z"/>
		<path class="st2" d="M150.7,65.5l-6.4,1.8l-7.2-24.9l-8.2,2.4l-1.5-5.3l22.8-6.6l1.5,5.3l-8.2,2.4L150.7,65.5z"/>
		<path class="st2" d="M193.7,59.7l-18.1,1l-1.8-31.4l18.1-1l0.3,5.4l-11.4,0.6l0.4,6.9l10.6-0.6l0.3,5.4l-10.6,0.6l0.5,8.1
			l11.4-0.6L193.7,59.7z"/>
		<path class="st2" d="M198.3,50.9l0.3-5.4l11.5,0.7l-0.3,5.4L198.3,50.9z"/>
		<path class="st2" d="M244.3,67.4l-7.4-1.7l-0.4-17c0-0.6,0-1.9,0-3.7c0-1.9,0.1-3.1,0.2-3.8c-0.3,0.7-0.8,1.9-1.5,3.5
			s-1.3,2.7-1.6,3.4l-7.9,15.1l-7.4-1.7l-0.7-32.4l6.4,1.5v17.6c0,3.2-0.2,6-0.4,8.4c0.3-0.8,0.7-2,1.4-3.6s1.3-2.8,1.8-3.7
			l8.5-16.1l6.1,1.4l0.5,18.2c0,0.8,0,2-0.1,3.7c-0.1,1.6-0.2,3-0.3,4.2c0.4-1.1,0.9-2.4,1.6-3.9c0.7-1.6,1.3-2.8,1.8-3.7l7.8-15.8
			l6.4,1.5L244.3,67.4z"/>
		<path class="st2" d="M272.4,79.7l1.2-7.7l-10.3-5l-5.3,5.8l-6.5-3.1L275.1,46l7.3,3.5l-3.6,33.2L272.4,79.7z M274.5,66.3
			c1-7,1.6-11,1.8-11.9c0.1-0.9,0.3-1.6,0.4-2.1c-1.2,1.4-4.4,4.9-9.5,10.5L274.5,66.3z"/>
		<path class="st2" d="M302.1,88.8c-1.6,2.3-3.7,3.6-6.4,3.7s-5.4-0.8-8.4-2.9c-2.7-1.9-4.8-4.1-6.2-6.7l3.6-5.1
			c1.2,2,2.3,3.6,3.3,4.7c1,1.2,2,2.1,3,2.8c1.2,0.8,2.3,1.3,3.2,1.2c1,0,1.8-0.5,2.4-1.4c0.4-0.5,0.5-1.1,0.5-1.6
			c0-0.6-0.2-1.3-0.4-2s-1-2.1-2.1-4.1c-1.1-1.8-1.7-3.4-2-4.6s-0.4-2.5-0.2-3.7c0.2-1.2,0.7-2.5,1.5-3.7c1.6-2.3,3.6-3.5,6.1-3.7
			s5,0.6,7.8,2.5c1.3,0.9,2.5,2,3.5,3.2s1.9,2.5,2.9,4l-4.7,3c-1-1.5-1.8-2.7-2.6-3.6c-0.7-0.9-1.5-1.6-2.4-2.2c-1-0.7-2-1-2.9-0.9
			s-1.6,0.5-2.1,1.3c-0.3,0.5-0.5,1-0.5,1.5s0.1,1.1,0.3,1.8c0.3,0.7,1,2.1,2.2,4.2c1.6,2.8,2.4,5.1,2.5,6.9
			C303.8,85.4,303.2,87.1,302.1,88.8z"/>
		<path class="st2" d="M310.2,108l-4.8-4.6l17.8-18.7l-6.2-5.9l3.8-4L338,91.1l-3.8,4l-6.2-5.9L310.2,108z"/>
		<path class="st2" d="M330.5,131.9l-11.1-14.3l24.8-19.3l11.1,14.3L351,116l-7-9l-5.4,4.2l6.5,8.4l-4.3,3.3l-6.5-8.4l-6.4,5l7,9
			L330.5,131.9z"/>
	</g>
</g>
</svg>
