<?xml version="1.0" encoding="UTF-8"?>
<svg width="26px" height="26px" viewBox="0 0 26 26" version="1.1" xmlns="http://www.w3.org/2000/svg" xmlns:xlink="http://www.w3.org/1999/xlink">
    <!-- Generator: Sketch 52.6 (67491) - http://www.bohemiancoding.com/sketch -->
    <title>Icon Booking</title>
    <desc>Created with Sketch.</desc>
    <g id="Icon-Booking" stroke="none" stroke-width="1" fill="none" fill-rule="evenodd">
        <g transform="translate(3.000000, 2.000000)" fill="#FFFFFF" id="Group">
            <g>
                <path d="M15.6799677,2.01354098 L14.5253226,2.01354098 L14.5253226,3.84963934 C14.5253226,4.59908197 13.928129,5.20642623 13.1907742,5.20642623 C12.4534194,5.20642623 11.8562258,4.59872131 11.8562258,3.84963934 L11.8562258,2.01354098 L6.66209677,2.01354098 L6.66209677,3.84963934 C6.66209677,4.59908197 6.06525806,5.20642623 5.32790323,5.20642623 C4.59054839,5.20642623 3.99335484,4.59872131 3.99335484,3.84963934 L3.99335484,2.01354098 L2.83870968,2.01354098 C1.40445161,2.01354098 0.241645161,3.19540984 0.241645161,4.65318033 L0.241645161,18.3645902 C0.241645161,19.8227213 1.40445161,21.0038689 2.83870968,21.0038689 L12.6180645,21.0038689 C11.6287742,19.9291148 11.022,18.4861311 11.022,16.8981639 C11.022,13.5776066 13.6701613,10.8853115 16.9371613,10.8853115 C17.3984516,10.8853115 17.8462581,10.9408525 18.2770323,11.0421967 L18.2770323,4.65281967 C18.2770323,3.19540984 17.1145806,2.01354098 15.6799677,2.01354098 Z M7.8163871,16.5858361 L2.26209677,16.5858361 C1.92322581,16.5858361 1.64858065,16.3066885 1.64858065,15.9622623 C1.64858065,15.6178361 1.92287097,15.3386885 2.26209677,15.3386885 L7.8163871,15.3386885 C8.15525806,15.3386885 8.42990323,15.6178361 8.42990323,15.9622623 C8.42990323,16.3066885 8.15525806,16.5858361 7.8163871,16.5858361 Z M7.8163871,12.5717377 L2.26209677,12.5717377 C1.92322581,12.5717377 1.64858065,12.2925902 1.64858065,11.9481639 C1.64858065,11.6037377 1.92287097,11.3245902 2.26209677,11.3245902 L7.8163871,11.3245902 C8.15525806,11.3245902 8.42990323,11.6037377 8.42990323,11.9481639 C8.42990323,12.2925902 8.15525806,12.5717377 7.8163871,12.5717377 Z M16.2569355,8.28209836 L2.26209677,8.28209836 C1.92322581,8.28209836 1.64858065,8.00367213 1.64858065,7.65852459 C1.64858065,7.31445902 1.92287097,7.03567213 2.26209677,7.03567213 L16.2569355,7.03567213 C16.5954516,7.03567213 16.8704516,7.31409836 16.8704516,7.65852459 C16.8704516,8.00331148 16.5958065,8.28209836 16.2569355,8.28209836 Z" id="Shape"></path>
                <path d="M6.12167742,3.58960656 C6.12167742,4.03501639 5.76612903,4.39639344 5.32790323,4.39639344 C4.89003226,4.39639344 4.53448387,4.03537705 4.53448387,3.58960656 L4.53448387,0.877114754 C4.53448387,0.431704918 4.89003226,0.0706885246 5.32790323,0.0706885246 C5.76612903,0.0706885246 6.12167742,0.431704918 6.12167742,0.877114754 L6.12167742,3.58960656 Z" id="Path"></path>
                <path d="M13.9845484,3.58960656 C13.9845484,4.03501639 13.6293548,4.39639344 13.191129,4.39639344 C12.7529032,4.39639344 12.3980645,4.03537705 12.3980645,3.58960656 L12.3980645,0.877114754 C12.3980645,0.431704918 12.7529032,0.0706885246 13.191129,0.0706885246 C13.6293548,0.0706885246 13.9845484,0.431704918 13.9845484,0.877114754 L13.9845484,3.58960656 Z" id="Path"></path>
                <path d="M16.9368065,12.1068525 C14.3337097,12.1068525 12.2238387,14.2520328 12.2238387,16.8978033 C12.2238387,19.5432131 14.3337097,21.6880328 16.9368065,21.6880328 C19.5399032,21.6880328 21.650129,19.5432131 21.650129,16.8978033 C21.6504839,14.2523934 19.5399032,12.1068525 16.9368065,12.1068525 Z M18.741871,17.8196393 L16.5723871,17.8196393 C16.5003548,17.8196393 16.431871,17.8048525 16.3694194,17.7792459 C16.3669355,17.7778033 16.3637419,17.7778033 16.3612581,17.7763607 C16.3335806,17.764459 16.3076774,17.7489508 16.282129,17.7327213 C16.2775161,17.7301967 16.2732581,17.7283934 16.269,17.7255082 C16.2512581,17.7132459 16.2349355,17.6977377 16.2186129,17.6829508 C16.2090323,17.6746557 16.1976774,17.6678033 16.1888065,17.6584262 C16.1795806,17.6490492 16.1724839,17.6375082 16.1643226,17.6277705 C16.150129,17.6111803 16.134871,17.5949508 16.1228065,17.5765574 C16.1199677,17.5725902 16.1185484,17.5682623 16.1157097,17.5635738 C16.0993871,17.5379672 16.0844839,17.5112787 16.0727742,17.4827869 C16.0713548,17.4802623 16.071,17.4770164 16.0699355,17.4748525 C16.0447419,17.4106557 16.0301935,17.3417705 16.0301935,17.2685574 L16.0301935,15.0635082 C16.0301935,14.7591148 16.2729032,14.5124262 16.5723871,14.5124262 C16.871871,14.5124262 17.1145806,14.7594754 17.1145806,15.0635082 L17.1145806,16.7174754 L18.741871,16.7174754 C19.0413548,16.7174754 19.2840645,16.9641639 19.2840645,17.2685574 C19.2840645,17.5729508 19.0413548,17.8196393 18.741871,17.8196393 Z" id="Shape"></path>
            </g>
        </g>
    </g>
</svg>