<?xml version="1.0" encoding="UTF-8"?>
<svg width="26px" height="26px" viewBox="0 0 26 26" version="1.1" xmlns="http://www.w3.org/2000/svg" xmlns:xlink="http://www.w3.org/1999/xlink">
    <!-- Generator: Sketch 52.6 (67491) - http://www.bohemiancoding.com/sketch -->
    <title>Icon Logout</title>
    <desc>Created with Sketch.</desc>
    <g id="Icon-Logout" stroke="none" stroke-width="1" fill="none" fill-rule="evenodd">
        <g id="Icon---Logout" transform="translate(2.000000, 2.000000)" fill="#FFFFFF" fill-rule="nonzero">
            <path d="M18.5195312,0 L3.48046875,0 C1.55825894,-1.17701405e-16 2.35402809e-16,1.55825894 0,3.48046875 L0,18.5195312 C2.35402809e-16,20.4417411 1.55825894,22 3.48046875,22 L18.5195312,22 C20.4417411,22 22,20.4417411 22,18.5195312 L22,3.48046875 C22,1.55825894 20.4417411,1.17701405e-16 18.5195312,0 Z M9.99710938,4.47648438 C9.9992341,4.06803799 10.2494741,3.70191077 10.6292574,3.55158578 C11.0090407,3.4012608 11.4420709,3.49693755 11.7231641,3.79328125 C11.9062109,3.98621094 11.9951563,4.19589844 11.9955859,4.4378125 L11.9955859,4.87910156 C11.9977344,7.11347656 11.9998828,9.41617187 11.9955859,11.6879297 C11.9955859,12.2065625 11.5366797,12.6332422 10.9969922,12.6332422 C10.4611719,12.6332422 10.0087109,12.2065625 10.0061328,11.6849219 C10.0005469,10.8337109 10.0061328,9.98078125 10.0061328,9.14332031 C10.0061328,8.78539062 10.0142969,8.42746094 10.0142969,8.06910156 L10.0142969,7.77734375 L9.99839844,7.77734375 C9.99839844,7.51953125 9.99839844,7.28148437 9.99839844,7.03699219 C9.99496094,6.19996094 9.99453125,5.328125 9.99710938,4.47648438 Z M12.3105469,18.390625 C10.4464487,18.7441278 8.51835455,18.3390828 6.95408048,17.2653636 C5.38980641,16.1916445 4.31871884,14.5380484 3.97847656,12.6714844 C3.55308594,10.2746875 4.20320312,8.14773437 5.91207031,6.34992187 C6.10347043,6.14043753 6.37298803,6.01944233 6.65671875,6.015625 C6.90974037,6.01684268 7.15256878,6.1154821 7.33476563,6.29105469 C7.53259029,6.47336543 7.64860542,6.72770035 7.65660156,6.99660156 C7.66123454,7.26860216 7.55606111,7.53099359 7.36484375,7.72449219 C6.5759375,8.54390625 6.08996094,9.50554687 5.92023438,10.5814844 C5.63237972,12.4152706 6.35614505,14.2617195 7.81346455,15.4114378 C9.27078405,16.561156 11.2349761,16.8353084 12.9514112,16.1285674 C14.6678462,15.4218265 15.8695381,13.8441235 16.0948047,12.0016016 C16.2847266,10.388125 15.8082031,8.96929688 14.6768359,7.78421875 C14.3627344,7.45507813 14.2690625,7.12121094 14.3820703,6.7340625 C14.4807932,6.39658603 14.7502105,6.13621244 15.0908599,6.04906548 C15.4315092,5.96191851 15.7928651,6.06092392 16.0415234,6.30953125 C17.2678516,7.54917969 17.9635156,9.05351563 18.1091797,10.7812891 C18.1207813,10.9166406 18.1285156,11.0562891 18.13625,11.1912109 C18.1396875,11.2530859 18.1434115,11.3148177 18.1474219,11.3764063 C18.1237891,14.8560156 15.7239844,17.7392187 12.3105469,18.390625 Z" id="Shape"></path>
        </g>
    </g>
</svg>