<?xml version="1.0" encoding="UTF-8"?>
<svg width="26px" height="26px" viewBox="0 0 26 26" version="1.1" xmlns="http://www.w3.org/2000/svg" xmlns:xlink="http://www.w3.org/1999/xlink">
    <!-- Generator: Sketch 52.6 (67491) - http://www.bohemiancoding.com/sketch -->
    <title>Icon Builder</title>
    <desc>Created with Sketch.</desc>
    <g id="Icon-Builder" stroke="none" stroke-width="1" fill="none" fill-rule="evenodd">
        <g transform="translate(3.000000, 3.000000)" fill="#FFFFFF" id="Group">
            <g>
                <path d="M18.9333333,0.328125 L0.866666667,0.328125 C0.466666667,0.328125 0.133333333,0.65625 0.133333333,1.05 L0.133333333,5.184375 L19.6666667,5.184375 L19.6666667,1.05 C19.6666667,0.65625 19.3333333,0.328125 18.9333333,0.328125 Z M5.6,3.28125 L2.8,3.28125 C2.53333333,3.28125 2.26666667,3.01875 2.26666667,2.75625 C2.26666667,2.49375 2.53333333,2.23125 2.8,2.23125 L5.6,2.23125 C5.86666667,2.23125 6.13333333,2.49375 6.13333333,2.75625 C6.13333333,3.01875 5.86666667,3.28125 5.6,3.28125 Z M14.7333333,3.28125 C14.7333333,3.54375 14.4666667,3.80625 14.2,3.80625 C13.9333333,3.80625 13.6666667,3.54375 13.6666667,3.28125 L13.6666667,2.23125 C13.6666667,1.96875 13.9333333,1.70625 14.2,1.70625 C14.4666667,1.70625 14.7333333,1.96875 14.7333333,2.23125 L14.7333333,3.28125 Z M17.2666667,3.28125 C17.2666667,3.54375 17,3.80625 16.7333333,3.80625 C16.4666667,3.80625 16.2,3.54375 16.2,3.28125 L16.2,2.23125 C16.2,1.96875 16.4666667,1.70625 16.7333333,1.70625 C17,1.70625 17.2666667,1.96875 17.2666667,2.23125 L17.2666667,3.28125 Z" id="Shape" fill-rule="nonzero"></path>
                <path d="M11.4666667,17.0625 C11.4666667,14.503125 13.6,12.403125 16.2,12.403125 C17.4666667,12.403125 18.6,12.8625 19.5333333,13.715625 C19.6,13.78125 19.6666667,13.846875 19.6666667,13.9125 L19.6666667,6.234375 L0.133333333,6.234375 L0.133333333,17.45625 C0.133333333,17.85 0.466666667,18.178125 0.866666667,18.178125 L11.6,18.178125 C11.5333333,18.046875 11.5333333,17.85 11.5333333,17.71875 C11.4666667,17.45625 11.4666667,17.259375 11.4666667,17.0625 Z" id="Path"></path>
                <path d="M18.7333333,14.4375 C18.4,14.109375 18,13.846875 17.6,13.715625 C17.6,13.715625 17.6,13.715625 17.5333333,13.715625 C17.3333333,13.65 17.2,13.584375 17,13.584375 C16.9333333,13.584375 16.9333333,13.584375 16.8666667,13.51875 C16.7333333,13.51875 16.6,13.51875 16.4666667,13.453125 C16.3333333,13.453125 16.2666667,13.453125 16.1333333,13.453125 C14.2666667,13.453125 12.7333333,14.83125 12.5333333,16.603125 C12.5333333,16.734375 12.4666667,16.865625 12.4666667,17.0625 C12.4666667,17.0625 12.4666667,17.0625 12.4666667,17.128125 C12.4666667,17.259375 12.4666667,17.390625 12.4666667,17.5875 C12.6666667,19.425 14.2666667,20.7375 16.1333333,20.7375 C18.1333333,20.7375 19.8,19.096875 19.8,17.128125 C19.8666667,16.078125 19.4666667,15.159375 18.7333333,14.4375 Z M18.2666667,17.5875 L16.7333333,17.5875 L16.7333333,19.096875 C16.7333333,19.359375 16.4666667,19.621875 16.2,19.621875 C15.9333333,19.621875 15.6666667,19.359375 15.6666667,19.096875 L15.6666667,17.5875 L14.1333333,17.5875 C13.8666667,17.5875 13.6,17.325 13.6,17.0625 C13.6,16.8 13.8666667,16.5375 14.1333333,16.5375 L15.6666667,16.5375 L15.6666667,15.028125 C15.6666667,14.765625 15.9333333,14.503125 16.2,14.503125 C16.4666667,14.503125 16.7333333,14.765625 16.7333333,15.028125 L16.7333333,16.5375 L18.2666667,16.5375 C18.5333333,16.5375 18.8,16.8 18.8,17.0625 C18.8,17.325 18.6,17.5875 18.2666667,17.5875 Z" id="Shape" fill-rule="nonzero"></path>
            </g>
        </g>
    </g>
</svg>