<?xml version="1.0" encoding="UTF-8"?>
<svg width="26px" height="26px" viewBox="0 0 26 26" version="1.1" xmlns="http://www.w3.org/2000/svg" xmlns:xlink="http://www.w3.org/1999/xlink">
    <!-- Generator: Sketch 52.6 (67491) - http://www.bohemiancoding.com/sketch -->
    <title>Icon Help</title>
    <desc>Created with Sketch.</desc>
    <g id="Icon-Help" stroke="none" stroke-width="1" fill="none" fill-rule="evenodd">
        <g transform="translate(2.000000, 2.000000)" fill="#FFFFFF" fill-rule="nonzero" id="Shape">
            <path d="M10.9405405,-4.26325641e-14 C4.89824685,-4.31606702e-14 -4.21044581e-14,4.89824685 -4.26325641e-14,10.9405405 C-4.36887763e-14,16.9828342 4.89824685,21.8810811 10.9405405,21.8810811 C16.9828342,21.8810811 21.8810811,16.9828342 21.8810811,10.9405405 C21.8810811,8.03892878 20.7284203,5.25615949 18.6766709,3.20441013 C16.6249216,1.15266078 13.8421523,-4.21044581e-14 10.9405405,-4.26325641e-14 Z M7.55135135,2.43783784 L8.71081081,5.47027027 C7.24102797,6.07406398 6.07406398,7.24102797 5.47027027,8.71081081 L2.43783784,7.55135135 C3.37450295,5.22137422 5.22137422,3.37450295 7.55135135,2.43783784 Z M7.55135135,19.4432432 C5.22137422,18.5065781 3.37450295,16.6597069 2.43783784,14.3297297 L5.47027027,13.1702703 C6.07406398,14.6400531 7.24102797,15.8070171 8.71081081,16.4108108 L7.55135135,19.4432432 Z M6.80810811,10.9405405 C6.80810811,8.65826113 8.65826113,6.80810811 10.9405405,6.80810811 C13.22282,6.80810811 15.072973,8.65826113 15.072973,10.9405405 C15.072973,13.22282 13.22282,15.072973 10.9405405,15.072973 C9.84455132,15.072973 8.79345096,14.6375929 8.01846954,13.8626115 C7.24348813,13.0876301 6.80810811,12.0365298 6.80810811,10.9405405 Z M14.3297297,19.4432432 L13.1702703,16.4108108 C14.6400531,15.8070171 15.8070171,14.6400531 16.4108108,13.1702703 L19.4432432,14.3297297 C18.5065781,16.6597069 16.6597069,18.5065781 14.3297297,19.4432432 Z M16.4108108,8.71081081 C15.8070171,7.24102797 14.6400531,6.07406398 13.1702703,5.47027027 L14.3297297,2.43783784 C16.6597069,3.37450295 18.5065781,5.22137422 19.4432432,7.55135135 L16.4108108,8.71081081 Z"></path>
        </g>
    </g>
</svg>