<?xml version="1.0" encoding="UTF-8"?>
<svg width="26px" height="26px" viewBox="0 0 26 26" version="1.1" xmlns="http://www.w3.org/2000/svg" xmlns:xlink="http://www.w3.org/1999/xlink">
    <!-- Generator: Sketch 52.6 (67491) - http://www.bohemiancoding.com/sketch -->
    <title>Icon Logo</title>
    <desc>Created with Sketch.</desc>
    <g id="Icon-Logo" stroke="none" stroke-width="1" fill="none" fill-rule="evenodd">
        <g id="Logo-Icon" transform="translate(3.000000, 2.000000)" fill="#FFFFFF">
            <path d="M4.51610526,8.91414286 C3.31026316,8.91414286 2.33321053,7.94595238 2.33321053,6.75104762 C2.33321053,5.55614286 3.31026316,4.58685714 4.51610526,4.58685714 C5.72194737,4.58685714 6.70010526,5.55614286 6.70010526,6.75104762 C6.70010526,7.94595238 5.72194737,8.91414286 4.51610526,8.91414286 Z M19.0458947,19.3747619 C19.6394211,19.3605238 20.1246316,18.8665714 20.1246316,18.2784286 L20.1246316,1.29238095 C20.1246316,0.581571429 19.5377368,1.0658141e-14 18.8204211,1.0658141e-14 L1.30310526,1.0658141e-14 C0.586894737,1.0658141e-14 -1.42108547e-14,0.581571429 -1.42108547e-14,1.29238095 L-1.42108547e-14,12.907381 L0.0563684211,12.907381 C2.07568421,12.9117619 4.09610526,12.3630476 6.11652632,11.2612381 C6.24473684,11.1834762 6.36410526,11.1495238 6.47242105,11.1495238 C6.96426316,11.1495238 7.22289474,11.8625238 7.22289474,12.3586667 C7.22289474,12.9610476 6.89794737,13.133 6.11652632,13.455 C4.12705263,14.1789524 2.13868421,14.5447619 0.149210526,14.5524286 L-1.42108547e-14,14.5524286 L-1.42108547e-14,18.2784286 C-1.42108547e-14,18.8819048 0.497368421,19.3747619 1.10636842,19.3758571 C1.10636842,19.3758571 10.4878421,19.3780476 10.6713158,19.389 C10.9763684,19.4098095 11.2250526,19.6332381 11.4007895,19.752619 C12.7945263,20.6989048 17.3482105,24.030619 17.3482105,22.420619 C17.3482105,19.6945714 17.3515263,21.3111429 17.3526316,19.7307143 C17.3526316,19.5445238 17.5073684,19.3868095 17.6974737,19.3857143 L19.0458947,19.3747619 Z" id="Fill-1"></path>
        </g>
    </g>
</svg>